Lab 03 - Nobel laureates
…
Buzzfeed got it right about more nobel winners immigrating to USA.
The only exception is if we’re talking about economics, as econ winners
mostly are US citizens in the united states.

…

Exercise 6

nobel_international <- nobel %>%
 filter(country == "USA" & born_country != "USA") %>%
  count(born_country) %>%
  arrange(desc(n)) %>%
  print()

## # A tibble: 37 × 2
##    born_country       n
##    <chr>          <int>
##  1 United Kingdom    15
##  2 Canada            12
##  3 Germany           10
##  4 China              6
##  5 Poland             6
##  6 France             5
##  7 Italy              5
##  8 Japan              5
##  9 Austria            4
## 10 Hungary            4
## # ℹ 27 more rows
…
