Lab 07 - Conveying the right message through visualisation
…
  "7/24", 9.8, "no mask",
  "7/25", 9.9, "no mask",
  "7/26", 10.1, "no mask",
  "7/27", 9.6, "no mask",
  "7/28", 9.6, "no mask",
  "7/29", 9.65, "no mask",
  "7/30", 10, "no mask",
  "7/31", 8.7, "no mask",
  "8/01", 9, "no mask",
  "8/02", 8.7, "no mask",
  "8/03", 9.2, "no mask",
)
Kansas_Mask

## # A tibble: 46 × 3
##    date  count mask_status
##    <chr> <dbl> <chr>      
##  1 7/12   25.5 mask       
##  2 7/13   19.8 mask       
##  3 7/14   19.7 mask       
##  4 7/15   20.5 mask       
##  5 7/16   19.8 mask       
##  6 7/17   19.8 mask       
##  7 7/18   20.5 mask       
##  8 7/19   20   mask       
##  9 7/20   20.7 mask       
## 10 7/21   21.3 mask       
## # ℹ 36 more rows
…
